{
    "/js/app.js": "/js/app.js",
    "/css/app.css": "/css/app.css",
    "/images/bg-masthead.jpg": "/images/bg-masthead.jpg",
    "/images/bg_1.jpg": "/images/bg_1.jpg",
    "/images/favicon.ico": "/images/favicon.ico",
    "/images/signup-bg.jpg": "/images/signup-bg.jpg",
    "/js/myscript/main.js": "/js/myscript/main.js",
    "/js/myscript/sb-admin-2.min.js": "/js/myscript/sb-admin-2.min.js",
    "/js/myscript/scriptMain.js": "/js/myscript/scriptMain.js"
}
